{
  "name": "Defaults",
  "settings": [
    {
    "type": "header",
    "content": "Images"
    },
    {
      "type": "image_picker",
      "id": "default_image",
      "label": "Default Image"
    }
  ]
}
